Date/Time,Word Count,bg,de,en,pt-PT,ru,sk
2017.06.17-22.36.27,221,0,0,221,0,0,0
2017.06.18-10.27.15,236,0,0,236,0,0,0
2017.06.18-16.11.51,236,9,0,236,0,0,0
2017.06.18-17.54.23,617,9,0,617,0,0,0
2017.06.18-23.48.25,617,189,0,617,0,0,0
2017.06.22-08.28.10,630,189,0,630,0,0,0
2017.06.22-22.34.56,630,628,0,630,0,0,0
2017.07.01-10.07.04,630,628,0,630,0,0,630
2017.07.02-19.36.32,630,628,630,630,0,0,630
